{
    "$schema": "http://json-schema.org/draft-04/schema#",
    "$id": "https://gitlab.ethz.ch/mechanics-and-materials/aqcnes/-/raw/main/data/lattice_gen_params/latticegenerator_parameters.schema.json",
    "$defs": {
      "position3d": {
          "type": "array",
          "items": {"type": "number"},
          "minItems": 3,
          "maxItems": 3
        }
    },
    "type": "object",
    "properties": {
        "$schema": {
            "type": "string"
        },
        "$version": {
            "type": "string"
        },
        "hcp_c_by_a": {
            "type": "number"
        },
        "atomistic_domain": {"$ref": "#/$defs/position3d"},
        "center": {"$ref": "#/$defs/position3d"},
        "coarsening_factors": {
            "type": "array",
            "items": {
                "type": "number"
            }
        },
        "domain_expansion_factors": {
            "type": "array",
            "items": {
                "type": "number"
            }
        },
        "lattice_file_name": {
            "type": "string"
        },
        "lattice_parameter": {
            "type": "number"
        },
        "make_atomistic_domain": {
            "type": "boolean"
        },
        "n_coarsening_levels": {
            "type": "integer"
        },
        "n_sub_lattice": {
            "type": "integer"
        },
        "name": {
            "type": "string"
        },
        "rotation": {
            "type": "array",
            "items": {"$ref": "#/$defs/position3d"},
            "minItems": 3,
            "maxItems": 3
        },
        "save_lattice_vectors": {
            "type": "boolean"
        },
        "seed_point_offset_coeffs": {
            "type": "array",
            "items": {"$ref": "#/$defs/position3d"}
        },
        "lattice_structure": {
            "type": "string"
        },
        "method": {
            "anyOf": [
                {
                    "type": "object",
                    "properties": {
                        "$type": {"const": "NanoIndentation"},
                        "domain_boundaries": {
                            "type": "object",
                            "additionalProperties": false,
                            "required": ["lower", "upper"],
                            "properties": {
                                "lower": {"$ref": "#/$defs/position3d"},
                                "upper": {"$ref": "#/$defs/position3d"}
                            }
                        }
                    },
                    "required": ["$type"],
                    "additionalProperties": false
                },
                {
                    "type": "object",
                    "properties": {
                        "$type": {"const": "SymmetricGrainboundaries"},
                        "delete_across_boundary": {"type": "boolean"}, 
                        "overlap_deletion_distance": {"type": "number"},
                        "domain_boundaries": {
                            "type": "object",
                            "additionalProperties": false,
                            "required": ["lower", "upper"],
                            "properties": {
                                "lower": {"$ref": "#/$defs/position3d"},
                                "upper": {"$ref": "#/$defs/position3d"}
                            }
                        }
                    },
                    "required": ["$type"],
                    "additionalProperties": false
                },
                {
                    "type": "object",
                    "properties": {
                        "$type": {"const": "ReadCoordinates"},
                        "coordinates_file_name": {"type": "string"}
                    },
                    "required": ["$type"],
                    "additionalProperties": false
                }
            ]
        }
    },
    "required": [
        "hcp_c_by_a",
        "atomistic_domain",
        "coarsening_factors",
        "domain_expansion_factors",
        "lattice_file_name",
        "lattice_parameter",
        "make_atomistic_domain",
        "n_coarsening_levels",
        "n_sub_lattice",
        "name",
        "rotation",
        "save_lattice_vectors",
        "seed_point_offset_coeffs",
        "lattice_structure",
        "method"
    ],
    "additionalProperties": false
}
