{
  "$schema": "https://gitlab.ethz.ch/mechanics-and-materials/aqcnes/-/raw/main/data/lattice_gen_params/latticegenerator_parameters.schema.json",
  "$version": "0.1",
  "hcp_c_by_a": 1.632,
  "atomistic_domain": [
    22.9,
    22.9,
    7.23
  ],
  "coarsening_factors": [
    1.0
  ],
  "domain_expansion_factors": [
    1.0
  ],
  "lattice_file_name": "./mesh_files/sigma5_2x2x1.txt",
  "lattice_parameter": 3.615,
  "make_atomistic_domain": true,
  "method": {
    "$type": "SymmetricGrainboundaries",
    "domain_boundaries": {
      "lower": [
        -5000.0,
        -5000.0,
        -10000.0
      ],
      "upper": [
        5000.0,
        5000.0,
        5000.0
      ]
    },
    "overlap_deletion_distance": 1.2,
    "delete_across_boundary": true
  },
  "n_coarsening_levels": 1,
  "n_sub_lattice": 1,
  "name": "sigma5_2x2x1",
  "rotation": [
    [
      0.9486832980505138,
      -0.31622776601683794,
      0.0
    ],
    [
      0.31622776601683794,
      0.9486832980505138,
      0.0
    ],
    [
      0.0,
      0.0,
      1.0
    ]
  ],
  "save_lattice_vectors": false,
  "seed_point_offset_coeffs": [
  ],
  "lattice_structure": "FCC"
}
