{
  "name": "aqcnes-dev",
  "build": {
    "dockerfile": "../container/Dockerfile"
  },
  "extensions": [
    "ms-vscode.cpptools",
    "ms-vscode.cmake-tools",
    "gitlab.gitlab-workflow"
  ],
  "settings": {
    "cmake.sourceDirectory": "${workspaceFolder}/src",
    "cmake.buildDirectory": "${workspaceFolder}/build",
    "cmake.configureOnOpen": true,
    "cmake.configureSettings": {
      "CMAKE_CXX_FLAGS": "-Wall -Wextra"
    },
  }
}
